*--------------------------------------------------------------------------------
*  Periphery register map
*--------------------------------------------------------------------------------
* RegName                                        Page    Addr    Defval    Value
ReadoutMode     0x0    0x1000    0x0    0x0
ClusterCut     0x0    0x1001    0x5 0x5
FE_Calibration     0x0    0x1002    0x1    0x1
OutPattern0     0x0    0x1003    0x6f    0x6f
OutPattern1     0x0    0x1004    0x68    0x68
OutPattern2     0x0    0x1005    0x79    0x79
OutPattern3     0x0    0x1006    0x65    0x65
OutPattern4     0x0    0x1007    0x61    0x61
OutPattern5     0x0    0x1008    0x68    0x68
OutPattern6     0x0    0x1009    0x21    0x21
OutPattern7/FIFOconfig     0x0    0x100a    0x7   0x7
Offset0    0x0     0x100b    0x0    0x0
Offset1    0x0     0x100c    0x0    0x0
Offset2    0x0     0x100d    0x0    0x0
Offset3    0x0     0x100e    0x0    0x0
Offset4    0x0     0x100f    0x0    0x0
Offset5    0x0     0x1010    0x0    0x0
ClockDeskewing     0x0    0x1011    0x81    0x81
AsyncRead_StartDel_LSB     0x0    0x1012    0xf8    0xf8
AsyncRead_StartDel_MSB     0x0    0x1013    0x3b    0x3b
L1-Latency_LSB     0x0    0x1014    0xc5    0xc5
L1-Latency_MSB     0x0    0x1015    0x0    0x0
PhaseShiftClock     0x0    0x1016    0x0    0x7
EdgeSel_T1     0x0    0x1017    0x1    0x1
SLVS_pad_current     0x0    0x1018    0x0    0x7
Bias_D5BFEED     0x0    0x1019    0xf    0xf
Bias_D5PREAMP     0x0    0x101a    0xf    0xf
Bias_D5TDR     0x0    0x101b    0xf    0xf
Bias_D5ALLV     0x0    0x101c    0xf    0xf
Bias_D5ALLI     0x0    0x101d    0xf    0xf
Bias_D5DLLB     0x0    0x101e    0xf    0xf
Bias_D5DAC8     0x0    0x101f    0xf    0xf
Bias_THDAC     0x0    0x1020    0x8    0xC
Bias_THDACHIGH     0x0    0x1021    0x78    0x78
Bias_CALDAC     0x0    0x1022    0x38    0x38
Bias_DL_en     0x0    0x1023    0x0    0x0
Bias_DL_ctrl     0x0    0x1024    0x0    0x0
Bias_TEST_LSB     0x0    0x1025    0x0    0x0
Bias_TEST_MSB     0x0    0x1026    0x0    0x0
LateralRX_L_DataPhase     0x0    0x1027    0x4    0x4
LateralRX_R_DataPhase     0x0    0x1028    0x4    0x4
LateralRX_L_SampleEdge     0x0    0x1029    0x1    0x1
LateralRX_R_SampleEdge     0x0    0x102a    0x1    0x1
Fuse_Mode     0x0    0x102b    0x0    0x0
CalPulse_duration     0x0    0x1034    0x8    0x8
ClkEnable_Code     0x0    0x1036    0x0    0x0

*--------------------------------------------------------------------------------
*  GENERAL Strips register map
*--------------------------------------------------------------------------------
ENFLAGS_ALL     		  0x0    0x0100    0x00    0x0
SAMPLINGMODE_ALL 		  0x0    0x0200    0x00    0x0
GAINTRIMMING_ALL 		  0x0    0x0300    0x00    0x0
THTRIMMING_ALL 		  	  0x0    0x0400    0x00    0x0
HIPCUT_ALL 		  	  	  0x0    0x0500    0x00    0x0
DigCalibPattern_L_ALL     0x00	0x600	0xAA	0x01
DigCalibPattern_H_ALL     0x00	0x700	0xAA	0x00
